…
# To sign in, use a web browser to open the page https://microsoft.com/devicelogin and enter the code FPD8GZPY9 to authenticate.
# Waiting for device code in browser...
# Press Esc/Ctrl + C to abort
# Authentication complete.
```

Now you can issue queries to the Kusto database with `run_query` and get the results back as a data.frame.

```r

res <- run_query(Samples, "StormEvents | summarize EventCount = count() by State | order by State asc")

as_tibble(res)

## # A tibble: 67 x 2
##    State          EventCount
##    <chr>               <dbl>
##  1 ALABAMA              1315
##  2 ALASKA                257
##  3 AMERICAN SAMOA         16
##  4 ARIZONA               340
##  5 ARKANSAS             1028
##  6 ATLANTIC NORTH        188
##  7 ATLANTIC SOUTH        193
##  8 CALIFORNIA            898
##  9 COLORADO             1654
## 10 CONNECTICUT           148
## # ... with 57 more rows
…
q <- StormEvents %>%
    group_by(State) %>%
    summarize(EventCount=n()) %>%
    arrange(State)

show_query(q)

# <KQL> database('Samples').StormEvents
# | summarize EventCount = count() by State
# | order by State asc

collect(q)

## # A tibble: 67 x 2
##    State          EventCount
##    <chr>               <dbl>
##  1 ALABAMA              1315
##  2 ALASKA                257
##  3 AMERICAN SAMOA         16
##  4 ARIZONA               340
##  5 ARKANSAS             1028
##  6 ATLANTIC NORTH        188
##  7 ATLANTIC SOUTH        193
##  8 CALIFORNIA            898
##  9 COLORADO             1654
## 10 CONNECTICUT           148
## # ... with 57 more rows
…
